
Skipping 1 packages ahead of CRAN: fritools
         checking   ✔  checking for file ‘/tmp/RtmpXeEe2g/remotes17bb2bfd1b40/cuutils/DESCRIPTION’ (383ms)
  ─  preparing ‘cuutils’:
   checking DESCRIPTION meta-information ...     checking DESCRIPTION meta-information ...      checking DESCRIPTION meta-information ... OK  ✔  checking DESCRIPTION meta-information
  ✔  checking vignette meta-information
              checking for LF line-endings in source and make files and shell scripts  ─  checking for LF line-endings in source and make files and shell scripts (464ms)
  ─  checking for empty or unneeded directories
  ─  building ‘cuutils_0.2.0.9000.tar.gz’
     
=========================
= Bitte haben Sie Spass. =
=========================

* installing *source* package ‘cuutils’ ...
** using staged installation
** R
** inst
** byte-compile and prepare package for lazy loading
=========================
= Bitte haben Sie Spass. =
=========================

** help
No man pages found in package  ‘cuutils’ 
*** installing help indices
** building package indices
=========================
= Bitte haben Sie Spass. =
=========================

** installing vignettes
** testing if installed package can be loaded from temporary location
=========================
= Bitte haben Sie Spass. =
=========================

** testing if installed package can be loaded from final location
=========================
= Bitte haben Sie Spass. =
=========================

** testing if installed package keeps a record of temporary installation path
* DONE (cuutils)
<error in packager::check_cyclomatic_complexity(): Exceeding maximum cyclomatic complexity of 10 for install_cran by 6.>
